2022-10-31 09:13:24,021 [   1559]   WARN - #c.i.n.i.NotificationGroupManagerImpl - Notification group CodeWithMe is already registered (group=com.intellij.notification.NotificationGroup@13d75561). Plugin descriptor: PluginDescriptor(name=Code With Me, id=com.jetbrains.codeWithMe, descriptorPath=plugin.xml, path=~/RubyMine/plugins/cwm-plugin, version=221.5921.22, package=null, isBundled=true)
Info  | RdCoroutineScope          | 11:JobScheduler FJ pool 1/7 | RdCoroutineHost overridden 
2022-10-31 09:13:31,625 [   9163]   WARN - #o.j.p.r.v.m.r.RvmVersionManagerHandler - RVM environment is not good:
rubies path: null
gems path: /home/frankb/.rvm/gems
; rvm environment: {XAUTHORITY=/run/user/1000/.mutter-Xwaylandauth.DE3VU1, XMODIFIERS=@im=ibus, rvm_gems_path=/home/frankb/.rvm/gems, rvm_is_not_a_shell_function=0, SPRING_SERVER_COMMAND=spring server, XDG_CURRENT_DESKTOP=GNOME, rvm_user_path=/home/frankb/.rvm/user, COLORTERM=truecolor, SESSION_MANAGER=local/frankb:@/tmp/.ICE-unix/1804,unix/frankb:/tmp/.ICE-unix/1804, USERNAME=frankb, LOGNAME=frankb, rvm_version=1.29.12 (latest), rvm_archives_path=/home/frankb/.rvm/archives, PWD=/home/frankb/WebstormProjects/humantalent-front, rvm_hooks_path=/home/frankb/.rvm/hooks, IM_CONFIG_PHASE=1, rvm_token=do, rvm_head_flag=0, LANGUAGE=es_CO:es, rvm_user_install_flag=1, SHELL=/bin/bash, rvm_verbose_flag=1, rvm_log_path=/home/frankb/.rvm/log, rvm_gemset_name=, rvm_delete_flag=0, MY_RUBY_HOME=/home/frankb/.rvm/rubies/ruby-2.5.1, rvm_archive_extension=tar.bz2, GNOME_DESKTOP_SESSION_ID=this-is-deprecated, __array_start=0, rvm_man_path=/home/frankb/.rvm/share/man, GTK_MODULES=gail:atk-bridge, GNOME_TERMINAL_SCREEN=/org/gnome/Terminal/screen/fdaeb323_24ae_406f_aa2d_b052cd0f6a30, rvm_lib_path=/home/frankb/.rvm/lib, RM_INFO=RM-221.5921.22, RUBY_VERSION=ruby-2.5.1, rvm_action=do, rvm_examples_path=/home/frankb/.rvm/examples, _system_name=Debian, rvm_usr_path=/home/frankb/.rvm/usr, XDG_SESSION_DESKTOP=gnome, LS_COLORS=rs=0:di=01;34:ln=01;36:mh=00:pi=40;33:so=01;35:do=01;35:bd=40;33;01:cd=40;33;01:or=40;31;01:mi=00:su=37;41:sg=30;43:ca=30;41:tw=30;42:ow=34;42:st=37;44:ex=01;32:*.tar=01;31:*.tgz=01;31:*.arc=01;31:*.arj=01;31:*.taz=01;31:*.lha=01;31:*.lz4=01;31:*.lzh=01;31:*.lzma=01;31:*.tlz=01;31:*.txz=01;31:*.tzo=01;31:*.t7z=01;31:*.zip=01;31:*.z=01;31:*.dz=01;31:*.gz=01;31:*.lrz=01;31:*.lz=01;31:*.lzo=01;31:*.xz=01;31:*.zst=01;31:*.tzst=01;31:*.bz2=01;31:*.bz=01;31:*.tbz=01;31:*.tbz2=01;31:*.tz=01;31:*.deb=01;31:*.rpm=01;31:*.jar=01;31:*.war=01;31:*.ear=01;31:*.sar=01;31:*.rar=01;31:*.alz=01;31:*.ace=01;31:*.zoo=01;31:*.cpio=01;31:*.7z=01;31:*.rz=01;31:*.cab=01;31:*.wim=01;31:*.swm=01;31:*.dwm=01;31:*.esd=01;31:*.jpg=01;35:*.jpeg=01;35:*.mjpg=01;35:*.mjpeg=01;35:*.gif=01;35:*.bmp=01;35:*.pbm=01;35:*.pgm=01;35:*.ppm=01;35:*.tga=01;35:*.xbm=01;35:*.xpm=01;35:*.tif=01;35:*.tiff=01;35:*.png=01;35:*.svg=01;35:*.svgz=01;35:*.mng=01;35:*.pcx=01;35:*.mov=01;35:*.mpg=01;35:*.mpeg=01;35:*.m2v=01;35:*.mkv=01;35:*.webm=01;35:*.webp=01;35:*.ogm=01;35:*.mp4=01;35:*.m4v=01;35:*.mp4v=01;35:*.vob=01;35:*.qt=01;35:*.nuv=01;35:*.wmv=01;35:*.asf=01;35:*.rm=01;35:*.rmvb=01;35:*.flc=01;35:*.avi=01;35:*.fli=01;35:*.flv=01;35:*.gl=01;35:*.dl=01;35:*.xcf=01;35:*.xwd=01;35:*.yuv=01;35:*.cgm=01;35:*.emf=01;35:*.ogv=01;35:*.ogx=01;35:*.aac=00;36:*.au=00;36:*.flac=00;36:*.m4a=00;36:*.mid=00;36:*.midi=00;36:*.mka=00;36:*.mp3=00;36:*.mpc=00;36:*.ogg=00;36:*.ra=00;36:*.wav=00;36:*.oga=00;36:*.opus=00;36:*.spx=00;36:*.xspf=00;36:, SSH_AGENT_LAUNCHER=openssh, rvm_comment_clr=, _system_arch=x86_64, rvm_notify_clr=, rvm_src_path=/home/frankb/.rvm/src, rvm_prefix=/home/frankb, rvm_wrappers_path=/home/frankb/.rvm/wrappers, LANG=es_CO.UTF-8, XDG_SESSION_TYPE=wayland, SPRING_TMP_PATH=/tmp/rm, rvm_default_flag=0, rvm_help_path=/home/frankb/.rvm/help, GDM_LANG=es_CO.UTF-8, rvm_patches_path=/home/frankb/.rvm/patches, DESKTOP_SESSION=gnome, _system_version=11, XDG_MENU_PREFIX=gnome-, QT_ACCESSIBILITY=1, rvm_stored_umask=0022, SSH_AUTH_SOCK=/run/user/1000/keyring/ssh, rvm_environments_path=/home/frankb/.rvm/environments, IM_CONFIG_CHECK_ENV=1, rvm_docs_path=/home/frankb/.rvm/docs, HOME=/home/frankb}
2022-10-31 09:13:31,627 [   9165]   WARN - #o.j.p.r.v.m.r.RvmVersionManagerHandler - Inferring paths from the path to RVM /home/frankb/.rvm/bin/rvm
2022-10-31 09:13:31,627 [   9165]   WARN - #o.j.p.r.v.m.r.RvmVersionManagerHandler - rvm_rubies_path(/home/frankb/.rvm/rubies) inferred from path to rvm executable (/home/frankb/.rvm/bin/rvm)
2022-10-31 09:13:32,698 [  10236]   WARN - #o.j.p.r.v.m.r.RvmVersionManagerHandler - RVM environment is not good:
rubies path: null
gems path: /home/frankb/.rvm/gems
; rvm environment: {XAUTHORITY=/run/user/1000/.mutter-Xwaylandauth.DE3VU1, XMODIFIERS=@im=ibus, rvm_gems_path=/home/frankb/.rvm/gems, rvm_is_not_a_shell_function=0, SPRING_SERVER_COMMAND=spring server, XDG_CURRENT_DESKTOP=GNOME, rvm_user_path=/home/frankb/.rvm/user, COLORTERM=truecolor, SESSION_MANAGER=local/frankb:@/tmp/.ICE-unix/1804,unix/frankb:/tmp/.ICE-unix/1804, USERNAME=frankb, LOGNAME=frankb, rvm_version=1.29.12 (latest), rvm_archives_path=/home/frankb/.rvm/archives, PWD=/home/frankb/WebstormProjects/humantalent-front, rvm_hooks_path=/home/frankb/.rvm/hooks, IM_CONFIG_PHASE=1, rvm_token=do, rvm_head_flag=0, LANGUAGE=es_CO:es, rvm_user_install_flag=1, SHELL=/bin/bash, rvm_verbose_flag=1, rvm_log_path=/home/frankb/.rvm/log, rvm_gemset_name=, rvm_delete_flag=0, MY_RUBY_HOME=/home/frankb/.rvm/rubies/ruby-2.5.1, rvm_archive_extension=tar.bz2, GNOME_DESKTOP_SESSION_ID=this-is-deprecated, __array_start=0, rvm_man_path=/home/frankb/.rvm/share/man, GTK_MODULES=gail:atk-bridge, GNOME_TERMINAL_SCREEN=/org/gnome/Terminal/screen/fdaeb323_24ae_406f_aa2d_b052cd0f6a30, rvm_lib_path=/home/frankb/.rvm/lib, RM_INFO=RM-221.5921.22, RUBY_VERSION=ruby-2.5.1, rvm_action=do, rvm_examples_path=/home/frankb/.rvm/examples, _system_name=Debian, rvm_usr_path=/home/frankb/.rvm/usr, XDG_SESSION_DESKTOP=gnome, LS_COLORS=rs=0:di=01;34:ln=01;36:mh=00:pi=40;33:so=01;35:do=01;35:bd=40;33;01:cd=40;33;01:or=40;31;01:mi=00:su=37;41:sg=30;43:ca=30;41:tw=30;42:ow=34;42:st=37;44:ex=01;32:*.tar=01;31:*.tgz=01;31:*.arc=01;31:*.arj=01;31:*.taz=01;31:*.lha=01;31:*.lz4=01;31:*.lzh=01;31:*.lzma=01;31:*.tlz=01;31:*.txz=01;31:*.tzo=01;31:*.t7z=01;31:*.zip=01;31:*.z=01;31:*.dz=01;31:*.gz=01;31:*.lrz=01;31:*.lz=01;31:*.lzo=01;31:*.xz=01;31:*.zst=01;31:*.tzst=01;31:*.bz2=01;31:*.bz=01;31:*.tbz=01;31:*.tbz2=01;31:*.tz=01;31:*.deb=01;31:*.rpm=01;31:*.jar=01;31:*.war=01;31:*.ear=01;31:*.sar=01;31:*.rar=01;31:*.alz=01;31:*.ace=01;31:*.zoo=01;31:*.cpio=01;31:*.7z=01;31:*.rz=01;31:*.cab=01;31:*.wim=01;31:*.swm=01;31:*.dwm=01;31:*.esd=01;31:*.jpg=01;35:*.jpeg=01;35:*.mjpg=01;35:*.mjpeg=01;35:*.gif=01;35:*.bmp=01;35:*.pbm=01;35:*.pgm=01;35:*.ppm=01;35:*.tga=01;35:*.xbm=01;35:*.xpm=01;35:*.tif=01;35:*.tiff=01;35:*.png=01;35:*.svg=01;35:*.svgz=01;35:*.mng=01;35:*.pcx=01;35:*.mov=01;35:*.mpg=01;35:*.mpeg=01;35:*.m2v=01;35:*.mkv=01;35:*.webm=01;35:*.webp=01;35:*.ogm=01;35:*.mp4=01;35:*.m4v=01;35:*.mp4v=01;35:*.vob=01;35:*.qt=01;35:*.nuv=01;35:*.wmv=01;35:*.asf=01;35:*.rm=01;35:*.rmvb=01;35:*.flc=01;35:*.avi=01;35:*.fli=01;35:*.flv=01;35:*.gl=01;35:*.dl=01;35:*.xcf=01;35:*.xwd=01;35:*.yuv=01;35:*.cgm=01;35:*.emf=01;35:*.ogv=01;35:*.ogx=01;35:*.aac=00;36:*.au=00;36:*.flac=00;36:*.m4a=00;36:*.mid=00;36:*.midi=00;36:*.mka=00;36:*.mp3=00;36:*.mpc=00;36:*.ogg=00;36:*.ra=00;36:*.wav=00;36:*.oga=00;36:*.opus=00;36:*.spx=00;36:*.xspf=00;36:, SSH_AGENT_LAUNCHER=openssh, rvm_comment_clr=, _system_arch=x86_64, rvm_notify_clr=, rvm_src_path=/home/frankb/.rvm/src, rvm_prefix=/home/frankb, rvm_wrappers_path=/home/frankb/.rvm/wrappers, LANG=es_CO.UTF-8, XDG_SESSION_TYPE=wayland, SPRING_TMP_PATH=/tmp/rm, rvm_default_flag=0, rvm_help_path=/home/frankb/.rvm/help, GDM_LANG=es_CO.UTF-8, rvm_patches_path=/home/frankb/.rvm/patches, DESKTOP_SESSION=gnome, _system_version=11, XDG_MENU_PREFIX=gnome-, QT_ACCESSIBILITY=1, rvm_stored_umask=0022, SSH_AUTH_SOCK=/run/user/1000/keyring/ssh, rvm_environments_path=/home/frankb/.rvm/environments, IM_CONFIG_CHECK_ENV=1, rvm_docs_path=/home/frankb/.rvm/docs, HOME=/home/frankb}
2022-10-31 09:13:32,699 [  10237]   WARN - #o.j.p.r.v.m.r.RvmVersionManagerHandler - Inferring paths from the path to RVM /home/frankb/.rvm/bin/rvm
2022-10-31 09:13:32,699 [  10237]   WARN - #o.j.p.r.v.m.r.RvmVersionManagerHandler - rvm_rubies_path(/home/frankb/.rvm/rubies) inferred from path to rvm executable (/home/frankb/.rvm/bin/rvm)
2022-10-31 09:13:33,278 [  10816]   WARN - #c.i.o.a.i.ActionUpdater - 435 ms to grab EDT for CWMTelephonyGroup#update (com.jetbrains.rd.platform.codeWithMe.telephony.CWMTelephonyGroup)
2022-10-31 09:13:33,279 [  10817]   WARN - #c.i.o.a.i.ActionUpdater - 439 ms to grab EDT for TabListAction#update (com.intellij.ide.actions.TabListAction)
2022-10-31 09:13:35,471 [  13009]   WARN - #o.j.p.r.g.m.GemRequirementsChangeWatcher - No Sdk selected for Module: 'Juridico'
2022-10-31 09:18:14,466 [ 292004]   WARN - #c.i.u.x.Binding - no accessors for org.jetbrains.idea.perforce.perforce.ConnectionId
